csci320/ultra/ultra3.vcd
$date
	Tue Nov 19 17:27:08 2013
$end
$version
	Icarus Verilog
$end
$timescale
	1s
$end
$scope module ultra3 $end
$var reg 16 ! ALU [15:0] $end
$var reg 6 " IM [5:0] $end
$var reg 16 # IM_16 [15:0] $end
$var reg 16 $ IR [15:0] $end
$var reg 16 % MD [15:0] $end
$var reg 16 & PC [15:0] $end
$var reg 16 ' counter [15:0] $end
$var reg 1 ( mof $end
$var reg 1 ) msb $end
$var reg 4 * opcode [3:0] $end
$var reg 2 + rd [1:0] $end
$var reg 2 , rs [1:0] $end
$var reg 2 - rt [1:0] $end
$var reg 16 . temp [15:0] $end
$scope begin stop_at $end
$upscope $end
$scope begin Init $end
$upscope $end
$scope begin main_process $end
$upscope $end
$upscope $end
$enddefinitions $end
#0
$dumpvars
b0 .
b0 -
b0 ,
b0 +
b0 *
0)
0(
b0 '
b1011 &
b0 %
b10000000011 $
bx #
b0 "
b0 !
$end
#1
b11 #
b11 "
b1 +
#2
b10 %
b11 !
#4
b1100 &
b100000000100 $
#5
b100 #
b100 "
b10 +
#6
b1 %
b100 !
#8
b1101 &
b1110000110000010 $
#9
b10 #
b10 "
b10 -
b1 ,
b0 +
b1110 *
#10
b1110 &
b1110 !
#11
b1111 &
b10010000000101 $
#12
b101 #
b101 "
b0 -
b0 ,
b1 +
b10 *
#13
b10 %
b101 !
#14
b10000 &
b100010010000000 $
#15
b0 #
b0 "
b10 -
b100 *
#16
b1 !
#18
b10001 &
b1101000110000010 $
#19
b10 #
b10 "
b1 ,
b0 +
b1101 *
#20
b10010 &
b10010 !
#21
b10011 &
b10010000000110 $
#22
b110 #
b110 "
b0 -
b0 ,
b1 +
b10 *
#23
b1 %
b110 !
#24
b10100 &
b1010000000100 $
#25
b100 #
b100 "
b1 *
#27
b10101 &
b1111001001111010 $
#28
b1111111111111010 #
b111010 "
b1 -
b10 ,
b0 +
b1111 *
#29
b1110 &
b1110 !
#30
b1111 &
b10010000000101 $
#31
b101 #
b101 "
b0 -
b0 ,
b1 +
b10 *
#32
b100 %
b101 !
#33
b10000 &
b100010010000000 $
#34
b0 #
b0 "
b10 -
b100 *
#35
b1 !
#37
b10001 &
b1101000110000010 $
#38
b10 #
b10 "
b1 ,
b0 +
b1101 *
#39
b10010 &
b10010 !
#40
b10011 &
b10010000000110 $
#41
b110 #
b110 "
b0 -
b0 ,
b1 +
b10 *
#42
b1 %
b110 !
#43
b10100 &
b1010000000100 $
#44
b100 #
b100 "
b1 *
#46
b10101 &
b1111001001111010 $
#47
b1111111111111010 #
b111010 "
b1 -
b10 ,
b0 +
b1111 *
#48
b1110 &
b1110 !
#49
b1111 &
b10010000000101 $
#50
b101 #
b101 "
b0 -
b0 ,
b1 +
b10 *
#51
b100 %
b101 !
#52
b10000 &
b100010010000000 $
#53
b0 #
b0 "
b10 -
b100 *
#54
b1 !
#56
b10001 &
b1101000110000010 $
#57
b10 #
b10 "
b1 ,
b0 +
b1101 *
#58
b10010 &
b10010 !
#59
b10011 &
b10010000000110 $
#60
b110 #
b110 "
b0 -
b0 ,
b1 +
b10 *
#61
b1 %
b110 !
#62
b10100 &
b1010000000100 $
#63
b100 #
b100 "
b1 *
#65
b10101 &
b1111001001111010 $
#66
b1111111111111010 #
b111010 "
b1 -
b10 ,
b0 +
b1111 *
#67
b1110 &
b1110 !
#68
b1111 &
b10010000000101 $
#69
b101 #
b101 "
b0 -
b0 ,
b1 +
b10 *
#70
b100 %
b101 !
#71
b10000 &
b100010010000000 $
#72
b0 #
b0 "
b10 -
b100 *
#73
b1 !
#75
b10001 &
b1101000110000010 $
#76
b10 #
b10 "
b1 ,
b0 +
b1101 *
#77
b10010 &
b10010 !
#78
b10011 &
b10010000000110 $
#79
b110 #
b110 "
b0 -
b0 ,
b1 +
b10 *
#80
b1 %
b110 !
#81
b10100 &
b1010000000100 $
#82
b100 #
b100 "
b1 *
#84
b10101 &
b1111001001111010 $
#85
b1111111111111010 #
b111010 "
b1 -
b10 ,
b0 +
b1111 *
#86
b1110 &
b1110 !
#87
b1111 &
b10010000000101 $
#88
b101 #
b101 "
b0 -
b0 ,
b1 +
b10 *
#89
b100 %
b101 !
#90
b10000 &
b100010010000000 $
#91
b0 #
b0 "
b10 -
b100 *
#92
b1 !
#94
b10001 &
b1101000110000010 $
#95
b10 #
b10 "
b1 ,
b0 +
b1101 *
#96
b10010 &
b10010 !
#97
b10011 &
b10010000000110 $
#98
b110 #
b110 "
b0 -
b0 ,
b1 +
b10 *
#99
b1 %
b110 !
#100
b10100 &
b1010000000100 $
#101
b100 #
b100 "
b1 *
#103
b10101 &
b1111001001111010 $
#104
b1111111111111010 #
b111010 "
b1 -
b10 ,
b0 +
b1111 *
#105
b1110 &
b1110 !
#106
b1111 &
b10010000000101 $
#107
b101 #
b101 "
b0 -
b0 ,
b1 +
b10 *
#108
b100 %
b101 !
#109
b10000 &
b100010010000000 $
#110
b0 #
b0 "
b10 -
b100 *
#111
b1 !
#113
b10001 &
b1101000110000010 $
#114
b10 #
b10 "
b1 ,
b0 +
b1101 *
#115
b10010 &
b10010 !
#116
b10011 &
b10010000000110 $
#117
b110 #
b110 "
b0 -
b0 ,
b1 +
b10 *
#118
b1 %
b110 !
#119
b10100 &
b1010000000100 $
#120
b100 #
b100 "
b1 *
